{
  "title": "Site name",
  "url": "https://myurl.com/",
  "description": "Site description",
  "feed": {
    "subtitle": "Site subtitlte",
    "filename": "feed.xml",
    "path": "/feed/feed.xml",
    "id": "https://myurl.com/"
  },
  "author": {
    "name": "Your Name Here",
    "email": "youremailaddress@example.com"
  }
}
